…
``` r
dadosCo2
```

    ## # A tibble: 39 x 13
    ##      ano   jan   fev   mar   abr   mai   jun   jul   ago   set   out   nov   dez
    ##    <dbl> <dbl> <dbl> <dbl> <dbl> <dbl> <dbl> <dbl> <dbl> <dbl> <dbl> <dbl> <dbl>
    ##  1  1959  315.  316.  316.  318.  318.  318   316.  315.  314.  313.  315.  315.
    ##  2  1960  316.  317.  317.  319.  320.  319.  318.  316.  314   314.  315.  316.
    ##  3  1961  317.  318.  318.  319.  320.  320.  318.  317.  315.  315.  316.  317.
    ##  4  1962  318.  318.  320.  320.  321.  320.  319.  317.  316.  315.  317.  318.
    ##  5  1963  319.  319.  320.  321.  322.  321.  320.  318.  316.  316.  317.  318.
    ##  6  1964  319.  320.  321.  321.  322.  322.  320.  319.  317.  317.  318.  319.
    ##  7  1965  319.  320.  321.  322.  322   322.  321.  319.  318.  317.  319.  319.
    ##  8  1966  320.  321.  322.  324.  324.  324.  322.  320.  318.  318.  320.  321.
    ##  9  1967  322.  322.  323.  324.  325.  324.  322.  321.  319.  319.  321.  322.
    ## 10  1968  322.  323.  324.  325.  325.  325.  324.  322.  320.  320.  321.  323.
    ## # ... with 29 more rows
…
